{
  "contractName": "Context",
  "abi": [],
  "metadata": "{\"compiler\":{\"version\":\"0.8.10+commit.fc410830\"},\"language\":\"Solidity\",\"output\":{\"abi\":[],\"devdoc\":{\"details\":\"Provides information about the current execution context, including the sender of the transaction and its data. While these are generally available via msg.sender and msg.data, they should not be accessed in such a direct manner, since when dealing with meta-transactions the account sending and paying for execution may not be the actual sender (as far as an application is concerned). This contract is only required for intermediate, library-like contracts.\",\"kind\":\"dev\",\"methods\":{},\"version\":1},\"userdoc\":{\"kind\":\"user\",\"methods\":{},\"version\":1}},\"settings\":{\"compilationTarget\":{\"@openzeppelin/contracts/utils/Context.sol\":\"Context\"},\"evmVersion\":\"petersburg\",\"libraries\":{},\"metadata\":{\"bytecodeHash\":\"ipfs\"},\"optimizer\":{\"enabled\":false,\"runs\":200},\"remappings\":[]},\"sources\":{\"@openzeppelin/contracts/utils/Context.sol\":{\"keccak256\":\"0x90565a39ae45c80f0468dc96c7b20d0afc3055f344c8203a0c9258239f350b9f\",\"license\":\"MIT\",\"urls\":[\"bzz-raw://26e8b38a7ac8e7b4463af00cf7fff1bf48ae9875765bf4f7751e100124d0bc8c\",\"dweb:/ipfs/QmWcsmkVr24xmmjfnBQZoemFniXjj3vwT78Cz6uqZW1Hux\"]}},\"version\":1}",
  "bytecode": "0x",
  "deployedBytecode": "0x",
  "immutableReferences": {},
  "generatedSources": [],
  "deployedGeneratedSources": [],
  "sourceMap": "",
  "deployedSourceMap": "",
  "source": "// SPDX-License-Identifier: MIT\n\npragma solidity ^0.8.0;\n\n/**\n * @dev Provides information about the current execution context, including the\n * sender of the transaction and its data. While these are generally available\n * via msg.sender and msg.data, they should not be accessed in such a direct\n * manner, since when dealing with meta-transactions the account sending and\n * paying for execution may not be the actual sender (as far as an application\n * is concerned).\n *\n * This contract is only required for intermediate, library-like contracts.\n */\nabstract contract Context {\n    function _msgSender() internal view virtual returns (address) {\n        return msg.sender;\n    }\n\n    function _msgData() internal view virtual returns (bytes calldata) {\n        return msg.data;\n    }\n}\n",
  "sourcePath": "@openzeppelin/contracts/utils/Context.sol",
  "ast": {
    "absolutePath": "@openzeppelin/contracts/utils/Context.sol",
    "exportedSymbols": {
      "Context": [
        2333
      ]
    },
    "id": 2334,
    "license": "MIT",
    "nodeType": "SourceUnit",
    "nodes": [
      {
        "id": 2313,
        "literals": [
          "solidity",
          "^",
          "0.8",
          ".0"
        ],
        "nodeType": "PragmaDirective",
        "src": "33:23:10"
      },
      {
        "abstract": true,
        "baseContracts": [],
        "canonicalName": "Context",
        "contractDependencies": [],
        "contractKind": "contract",
        "documentation": {
          "id": 2314,
          "nodeType": "StructuredDocumentation",
          "src": "58:496:10",
          "text": " @dev Provides information about the current execution context, including the\n sender of the transaction and its data. While these are generally available\n via msg.sender and msg.data, they should not be accessed in such a direct\n manner, since when dealing with meta-transactions the account sending and\n paying for execution may not be the actual sender (as far as an application\n is concerned).\n This contract is only required for intermediate, library-like contracts."
        },
        "fullyImplemented": true,
        "id": 2333,
        "linearizedBaseContracts": [
          2333
        ],
        "name": "Context",
        "nameLocation": "573:7:10",
        "nodeType": "ContractDefinition",
        "nodes": [
          {
            "body": {
              "id": 2322,
              "nodeType": "Block",
              "src": "649:34:10",
              "statements": [
                {
                  "expression": {
                    "expression": {
                      "id": 2319,
                      "name": "msg",
                      "nodeType": "Identifier",
                      "overloadedDeclarations": [],
                      "referencedDeclaration": 4294967281,
                      "src": "666:3:10",
                      "typeDescriptions": {
                        "typeIdentifier": "t_magic_message",
                        "typeString": "msg"
                      }
                    },
                    "id": 2320,
                    "isConstant": false,
                    "isLValue": false,
                    "isPure": false,
                    "lValueRequested": false,
                    "memberName": "sender",
                    "nodeType": "MemberAccess",
                    "src": "666:10:10",
                    "typeDescriptions": {
                      "typeIdentifier": "t_address",
                      "typeString": "address"
                    }
                  },
                  "functionReturnParameters": 2318,
                  "id": 2321,
                  "nodeType": "Return",
                  "src": "659:17:10"
                }
              ]
            },
            "id": 2323,
            "implemented": true,
            "kind": "function",
            "modifiers": [],
            "name": "_msgSender",
            "nameLocation": "596:10:10",
            "nodeType": "FunctionDefinition",
            "parameters": {
              "id": 2315,
              "nodeType": "ParameterList",
              "parameters": [],
              "src": "606:2:10"
            },
            "returnParameters": {
              "id": 2318,
              "nodeType": "ParameterList",
              "parameters": [
                {
                  "constant": false,
                  "id": 2317,
                  "mutability": "mutable",
                  "name": "",
                  "nameLocation": "-1:-1:-1",
                  "nodeType": "VariableDeclaration",
                  "scope": 2323,
                  "src": "640:7:10",
                  "stateVariable": false,
                  "storageLocation": "default",
                  "typeDescriptions": {
                    "typeIdentifier": "t_address",
                    "typeString": "address"
                  },
                  "typeName": {
                    "id": 2316,
                    "name": "address",
                    "nodeType": "ElementaryTypeName",
                    "src": "640:7:10",
                    "stateMutability": "nonpayable",
                    "typeDescriptions": {
                      "typeIdentifier": "t_address",
                      "typeString": "address"
                    }
                  },
                  "visibility": "internal"
                }
              ],
              "src": "639:9:10"
            },
            "scope": 2333,
            "src": "587:96:10",
            "stateMutability": "view",
            "virtual": true,
            "visibility": "internal"
          },
          {
            "body": {
              "id": 2331,
              "nodeType": "Block",
              "src": "756:32:10",
              "statements": [
                {
                  "expression": {
                    "expression": {
                      "id": 2328,
                      "name": "msg",
                      "nodeType": "Identifier",
                      "overloadedDeclarations": [],
                      "referencedDeclaration": 4294967281,
                      "src": "773:3:10",
                      "typeDescriptions": {
                        "typeIdentifier": "t_magic_message",
                        "typeString": "msg"
                      }
                    },
                    "id": 2329,
                    "isConstant": false,
                    "isLValue": false,
                    "isPure": false,
                    "lValueRequested": false,
                    "memberName": "data",
                    "nodeType": "MemberAccess",
                    "src": "773:8:10",
                    "typeDescriptions": {
                      "typeIdentifier": "t_bytes_calldata_ptr",
                      "typeString": "bytes calldata"
                    }
                  },
                  "functionReturnParameters": 2327,
                  "id": 2330,
                  "nodeType": "Return",
                  "src": "766:15:10"
                }
              ]
            },
            "id": 2332,
            "implemented": true,
            "kind": "function",
            "modifiers": [],
            "name": "_msgData",
            "nameLocation": "698:8:10",
            "nodeType": "FunctionDefinition",
            "parameters": {
              "id": 2324,
              "nodeType": "ParameterList",
              "parameters": [],
              "src": "706:2:10"
            },
            "returnParameters": {
              "id": 2327,
              "nodeType": "ParameterList",
              "parameters": [
                {
                  "constant": false,
                  "id": 2326,
                  "mutability": "mutable",
                  "name": "",
                  "nameLocation": "-1:-1:-1",
                  "nodeType": "VariableDeclaration",
                  "scope": 2332,
                  "src": "740:14:10",
                  "stateVariable": false,
                  "storageLocation": "calldata",
                  "typeDescriptions": {
                    "typeIdentifier": "t_bytes_calldata_ptr",
                    "typeString": "bytes"
                  },
                  "typeName": {
                    "id": 2325,
                    "name": "bytes",
                    "nodeType": "ElementaryTypeName",
                    "src": "740:5:10",
                    "typeDescriptions": {
                      "typeIdentifier": "t_bytes_storage_ptr",
                      "typeString": "bytes"
                    }
                  },
                  "visibility": "internal"
                }
              ],
              "src": "739:16:10"
            },
            "scope": 2333,
            "src": "689:99:10",
            "stateMutability": "view",
            "virtual": true,
            "visibility": "internal"
          }
        ],
        "scope": 2334,
        "src": "555:235:10",
        "usedErrors": []
      }
    ],
    "src": "33:758:10"
  },
  "legacyAST": {
    "absolutePath": "@openzeppelin/contracts/utils/Context.sol",
    "exportedSymbols": {
      "Context": [
        2333
      ]
    },
    "id": 2334,
    "license": "MIT",
    "nodeType": "SourceUnit",
    "nodes": [
      {
        "id": 2313,
        "literals": [
          "solidity",
          "^",
          "0.8",
          ".0"
        ],
        "nodeType": "PragmaDirective",
        "src": "33:23:10"
      },
      {
        "abstract": true,
        "baseContracts": [],
        "canonicalName": "Context",
        "contractDependencies": [],
        "contractKind": "contract",
        "documentation": {
          "id": 2314,
          "nodeType": "StructuredDocumentation",
          "src": "58:496:10",
          "text": " @dev Provides information about the current execution context, including the\n sender of the transaction and its data. While these are generally available\n via msg.sender and msg.data, they should not be accessed in such a direct\n manner, since when dealing with meta-transactions the account sending and\n paying for execution may not be the actual sender (as far as an application\n is concerned).\n This contract is only required for intermediate, library-like contracts."
        },
        "fullyImplemented": true,
        "id": 2333,
        "linearizedBaseContracts": [
          2333
        ],
        "name": "Context",
        "nameLocation": "573:7:10",
        "nodeType": "ContractDefinition",
        "nodes": [
          {
            "body": {
              "id": 2322,
              "nodeType": "Block",
              "src": "649:34:10",
              "statements": [
                {
                  "expression": {
                    "expression": {
                      "id": 2319,
                      "name": "msg",
                      "nodeType": "Identifier",
                      "overloadedDeclarations": [],
                      "referencedDeclaration": 4294967281,
                      "src": "666:3:10",
                      "typeDescriptions": {
                        "typeIdentifier": "t_magic_message",
                        "typeString": "msg"
                      }
                    },
                    "id": 2320,
                    "isConstant": false,
                    "isLValue": false,
                    "isPure": false,
                    "lValueRequested": false,
                    "memberName": "sender",
                    "nodeType": "MemberAccess",
                    "src": "666:10:10",
                    "typeDescriptions": {
                      "typeIdentifier": "t_address",
                      "typeString": "address"
                    }
                  },
                  "functionReturnParameters": 2318,
                  "id": 2321,
                  "nodeType": "Return",
                  "src": "659:17:10"
                }
              ]
            },
            "id": 2323,
            "implemented": true,
            "kind": "function",
            "modifiers": [],
            "name": "_msgSender",
            "nameLocation": "596:10:10",
            "nodeType": "FunctionDefinition",
            "parameters": {
              "id": 2315,
              "nodeType": "ParameterList",
              "parameters": [],
              "src": "606:2:10"
            },
            "returnParameters": {
              "id": 2318,
              "nodeType": "ParameterList",
              "parameters": [
                {
                  "constant": false,
                  "id": 2317,
                  "mutability": "mutable",
                  "name": "",
                  "nameLocation": "-1:-1:-1",
                  "nodeType": "VariableDeclaration",
                  "scope": 2323,
                  "src": "640:7:10",
                  "stateVariable": false,
                  "storageLocation": "default",
                  "typeDescriptions": {
                    "typeIdentifier": "t_address",
                    "typeString": "address"
                  },
                  "typeName": {
                    "id": 2316,
                    "name": "address",
                    "nodeType": "ElementaryTypeName",
                    "src": "640:7:10",
                    "stateMutability": "nonpayable",
                    "typeDescriptions": {
                      "typeIdentifier": "t_address",
                      "typeString": "address"
                    }
                  },
                  "visibility": "internal"
                }
              ],
              "src": "639:9:10"
            },
            "scope": 2333,
            "src": "587:96:10",
            "stateMutability": "view",
            "virtual": true,
            "visibility": "internal"
          },
          {
            "body": {
              "id": 2331,
              "nodeType": "Block",
              "src": "756:32:10",
              "statements": [
                {
                  "expression": {
                    "expression": {
                      "id": 2328,
                      "name": "msg",
                      "nodeType": "Identifier",
                      "overloadedDeclarations": [],
                      "referencedDeclaration": 4294967281,
                      "src": "773:3:10",
                      "typeDescriptions": {
                        "typeIdentifier": "t_magic_message",
                        "typeString": "msg"
                      }
                    },
                    "id": 2329,
                    "isConstant": false,
                    "isLValue": false,
                    "isPure": false,
                    "lValueRequested": false,
                    "memberName": "data",
                    "nodeType": "MemberAccess",
                    "src": "773:8:10",
                    "typeDescriptions": {
                      "typeIdentifier": "t_bytes_calldata_ptr",
                      "typeString": "bytes calldata"
                    }
                  },
                  "functionReturnParameters": 2327,
                  "id": 2330,
                  "nodeType": "Return",
                  "src": "766:15:10"
                }
              ]
            },
            "id": 2332,
            "implemented": true,
            "kind": "function",
            "modifiers": [],
            "name": "_msgData",
            "nameLocation": "698:8:10",
            "nodeType": "FunctionDefinition",
            "parameters": {
              "id": 2324,
              "nodeType": "ParameterList",
              "parameters": [],
              "src": "706:2:10"
            },
            "returnParameters": {
              "id": 2327,
              "nodeType": "ParameterList",
              "parameters": [
                {
                  "constant": false,
                  "id": 2326,
                  "mutability": "mutable",
                  "name": "",
                  "nameLocation": "-1:-1:-1",
                  "nodeType": "VariableDeclaration",
                  "scope": 2332,
                  "src": "740:14:10",
                  "stateVariable": false,
                  "storageLocation": "calldata",
                  "typeDescriptions": {
                    "typeIdentifier": "t_bytes_calldata_ptr",
                    "typeString": "bytes"
                  },
                  "typeName": {
                    "id": 2325,
                    "name": "bytes",
                    "nodeType": "ElementaryTypeName",
                    "src": "740:5:10",
                    "typeDescriptions": {
                      "typeIdentifier": "t_bytes_storage_ptr",
                      "typeString": "bytes"
                    }
                  },
                  "visibility": "internal"
                }
              ],
              "src": "739:16:10"
            },
            "scope": 2333,
            "src": "689:99:10",
            "stateMutability": "view",
            "virtual": true,
            "visibility": "internal"
          }
        ],
        "scope": 2334,
        "src": "555:235:10",
        "usedErrors": []
      }
    ],
    "src": "33:758:10"
  },
  "compiler": {
    "name": "solc",
    "version": "0.8.10+commit.fc410830.Emscripten.clang"
  },
  "networks": {},
  "schemaVersion": "3.3.4",
  "updatedAt": "2021-11-22T08:22:46.506Z",
  "devdoc": {
    "details": "Provides information about the current execution context, including the sender of the transaction and its data. While these are generally available via msg.sender and msg.data, they should not be accessed in such a direct manner, since when dealing with meta-transactions the account sending and paying for execution may not be the actual sender (as far as an application is concerned). This contract is only required for intermediate, library-like contracts.",
    "kind": "dev",
    "methods": {},
    "version": 1
  },
  "userdoc": {
    "kind": "user",
    "methods": {},
    "version": 1
  }
}