{
  "contractName": "IERC20",
  "abi": [
    {
      "anonymous": false,
      "inputs": [
        {
          "indexed": true,
          "internalType": "address",
          "name": "owner",
          "type": "address"
        },
        {
          "indexed": true,
          "internalType": "address",
          "name": "spender",
          "type": "address"
        },
        {
          "indexed": false,
          "internalType": "uint256",
          "name": "value",
          "type": "uint256"
        }
      ],
      "name": "Approval",
      "type": "event"
    },
    {
      "anonymous": false,
      "inputs": [
        {
          "indexed": true,
          "internalType": "address",
          "name": "from",
          "type": "address"
        },
        {
          "indexed": true,
          "internalType": "address",
          "name": "to",
          "type": "address"
        },
        {
          "indexed": false,
          "internalType": "uint256",
          "name": "value",
          "type": "uint256"
        }
      ],
      "name": "Transfer",
      "type": "event"
    },
    {
      "inputs": [],
      "name": "totalSupply",
      "outputs": [
        {
          "internalType": "uint256",
          "name": "",
          "type": "uint256"
        }
      ],
      "stateMutability": "view",
      "type": "function"
    },
    {
      "inputs": [
        {
          "internalType": "address",
          "name": "account",
          "type": "address"
        }
      ],
      "name": "balanceOf",
      "outputs": [
        {
          "internalType": "uint256",
          "name": "",
          "type": "uint256"
        }
      ],
      "stateMutability": "view",
      "type": "function"
    },
    {
      "inputs": [
        {
          "internalType": "address",
          "name": "recipient",
          "type": "address"
        },
        {
          "internalType": "uint256",
          "name": "amount",
          "type": "uint256"
        }
      ],
      "name": "transfer",
      "outputs": [
        {
          "internalType": "bool",
          "name": "",
          "type": "bool"
        }
      ],
      "stateMutability": "nonpayable",
      "type": "function"
    },
    {
      "inputs": [
        {
          "internalType": "address",
          "name": "owner",
          "type": "address"
        },
        {
          "internalType": "address",
          "name": "spender",
          "type": "address"
        }
      ],
      "name": "allowance",
      "outputs": [
        {
          "internalType": "uint256",
          "name": "",
          "type": "uint256"
        }
      ],
      "stateMutability": "view",
      "type": "function"
    },
    {
      "inputs": [
        {
          "internalType": "address",
          "name": "spender",
          "type": "address"
        },
        {
          "internalType": "uint256",
          "name": "amount",
          "type": "uint256"
        }
      ],
      "name": "approve",
      "outputs": [
        {
          "internalType": "bool",
          "name": "",
          "type": "bool"
        }
      ],
      "stateMutability": "nonpayable",
      "type": "function"
    },
    {
      "inputs": [
        {
          "internalType": "address",
          "name": "sender",
          "type": "address"
        },
        {
          "internalType": "address",
          "name": "recipient",
          "type": "address"
        },
        {
          "internalType": "uint256",
          "name": "amount",
          "type": "uint256"
        }
      ],
      "name": "transferFrom",
      "outputs": [
        {
          "internalType": "bool",
          "name": "",
          "type": "bool"
        }
      ],
      "stateMutability": "nonpayable",
      "type": "function"
    }
  ],
  "metadata": "{\"compiler\":{\"version\":\"0.8.10+commit.fc410830\"},\"language\":\"Solidity\",\"output\":{\"abi\":[{\"anonymous\":false,\"inputs\":[{\"indexed\":true,\"internalType\":\"address\",\"name\":\"owner\",\"type\":\"address\"},{\"indexed\":true,\"internalType\":\"address\",\"name\":\"spender\",\"type\":\"address\"},{\"indexed\":false,\"internalType\":\"uint256\",\"name\":\"value\",\"type\":\"uint256\"}],\"name\":\"Approval\",\"type\":\"event\"},{\"anonymous\":false,\"inputs\":[{\"indexed\":true,\"internalType\":\"address\",\"name\":\"from\",\"type\":\"address\"},{\"indexed\":true,\"internalType\":\"address\",\"name\":\"to\",\"type\":\"address\"},{\"indexed\":false,\"internalType\":\"uint256\",\"name\":\"value\",\"type\":\"uint256\"}],\"name\":\"Transfer\",\"type\":\"event\"},{\"inputs\":[{\"internalType\":\"address\",\"name\":\"owner\",\"type\":\"address\"},{\"internalType\":\"address\",\"name\":\"spender\",\"type\":\"address\"}],\"name\":\"allowance\",\"outputs\":[{\"internalType\":\"uint256\",\"name\":\"\",\"type\":\"uint256\"}],\"stateMutability\":\"view\",\"type\":\"function\"},{\"inputs\":[{\"internalType\":\"address\",\"name\":\"spender\",\"type\":\"address\"},{\"internalType\":\"uint256\",\"name\":\"amount\",\"type\":\"uint256\"}],\"name\":\"approve\",\"outputs\":[{\"internalType\":\"bool\",\"name\":\"\",\"type\":\"bool\"}],\"stateMutability\":\"nonpayable\",\"type\":\"function\"},{\"inputs\":[{\"internalType\":\"address\",\"name\":\"account\",\"type\":\"address\"}],\"name\":\"balanceOf\",\"outputs\":[{\"internalType\":\"uint256\",\"name\":\"\",\"type\":\"uint256\"}],\"stateMutability\":\"view\",\"type\":\"function\"},{\"inputs\":[],\"name\":\"totalSupply\",\"outputs\":[{\"internalType\":\"uint256\",\"name\":\"\",\"type\":\"uint256\"}],\"stateMutability\":\"view\",\"type\":\"function\"},{\"inputs\":[{\"internalType\":\"address\",\"name\":\"recipient\",\"type\":\"address\"},{\"internalType\":\"uint256\",\"name\":\"amount\",\"type\":\"uint256\"}],\"name\":\"transfer\",\"outputs\":[{\"internalType\":\"bool\",\"name\":\"\",\"type\":\"bool\"}],\"stateMutability\":\"nonpayable\",\"type\":\"function\"},{\"inputs\":[{\"internalType\":\"address\",\"name\":\"sender\",\"type\":\"address\"},{\"internalType\":\"address\",\"name\":\"recipient\",\"type\":\"address\"},{\"internalType\":\"uint256\",\"name\":\"amount\",\"type\":\"uint256\"}],\"name\":\"transferFrom\",\"outputs\":[{\"internalType\":\"bool\",\"name\":\"\",\"type\":\"bool\"}],\"stateMutability\":\"nonpayable\",\"type\":\"function\"}],\"devdoc\":{\"details\":\"Interface of the ERC20 standard as defined in the EIP.\",\"events\":{\"Approval(address,address,uint256)\":{\"details\":\"Emitted when the allowance of a `spender` for an `owner` is set by a call to {approve}. `value` is the new allowance.\"},\"Transfer(address,address,uint256)\":{\"details\":\"Emitted when `value` tokens are moved from one account (`from`) to another (`to`). Note that `value` may be zero.\"}},\"kind\":\"dev\",\"methods\":{\"allowance(address,address)\":{\"details\":\"Returns the remaining number of tokens that `spender` will be allowed to spend on behalf of `owner` through {transferFrom}. This is zero by default. This value changes when {approve} or {transferFrom} are called.\"},\"approve(address,uint256)\":{\"details\":\"Sets `amount` as the allowance of `spender` over the caller's tokens. Returns a boolean value indicating whether the operation succeeded. IMPORTANT: Beware that changing an allowance with this method brings the risk that someone may use both the old and the new allowance by unfortunate transaction ordering. One possible solution to mitigate this race condition is to first reduce the spender's allowance to 0 and set the desired value afterwards: https://github.com/ethereum/EIPs/issues/20#issuecomment-263524729 Emits an {Approval} event.\"},\"balanceOf(address)\":{\"details\":\"Returns the amount of tokens owned by `account`.\"},\"totalSupply()\":{\"details\":\"Returns the amount of tokens in existence.\"},\"transfer(address,uint256)\":{\"details\":\"Moves `amount` tokens from the caller's account to `recipient`. Returns a boolean value indicating whether the operation succeeded. Emits a {Transfer} event.\"},\"transferFrom(address,address,uint256)\":{\"details\":\"Moves `amount` tokens from `sender` to `recipient` using the allowance mechanism. `amount` is then deducted from the caller's allowance. Returns a boolean value indicating whether the operation succeeded. Emits a {Transfer} event.\"}},\"version\":1},\"userdoc\":{\"kind\":\"user\",\"methods\":{},\"version\":1}},\"settings\":{\"compilationTarget\":{\"@openzeppelin/contracts/token/ERC20/IERC20.sol\":\"IERC20\"},\"evmVersion\":\"petersburg\",\"libraries\":{},\"metadata\":{\"bytecodeHash\":\"ipfs\"},\"optimizer\":{\"enabled\":false,\"runs\":200},\"remappings\":[]},\"sources\":{\"@openzeppelin/contracts/token/ERC20/IERC20.sol\":{\"keccak256\":\"0x027b891937d20ccf213fdb9c31531574256de774bda99d3a70ecef6e1913ed2a\",\"license\":\"MIT\",\"urls\":[\"bzz-raw://087318b21c528119f649899f5b5580566dd8d7b0303d4904bd0e8580c3545f14\",\"dweb:/ipfs/Qmbn5Mj7aUn8hJuQ8VrQjjEXRsXyJKykgnjR9p4C3nfLtL\"]}},\"version\":1}",
  "bytecode": "0x",
  "deployedBytecode": "0x",
  "immutableReferences": {},
  "generatedSources": [],
  "deployedGeneratedSources": [],
  "sourceMap": "",
  "deployedSourceMap": "",
  "source": "// SPDX-License-Identifier: MIT\n\npragma solidity ^0.8.0;\n\n/**\n * @dev Interface of the ERC20 standard as defined in the EIP.\n */\ninterface IERC20 {\n    /**\n     * @dev Returns the amount of tokens in existence.\n     */\n    function totalSupply() external view returns (uint256);\n\n    /**\n     * @dev Returns the amount of tokens owned by `account`.\n     */\n    function balanceOf(address account) external view returns (uint256);\n\n    /**\n     * @dev Moves `amount` tokens from the caller's account to `recipient`.\n     *\n     * Returns a boolean value indicating whether the operation succeeded.\n     *\n     * Emits a {Transfer} event.\n     */\n    function transfer(address recipient, uint256 amount) external returns (bool);\n\n    /**\n     * @dev Returns the remaining number of tokens that `spender` will be\n     * allowed to spend on behalf of `owner` through {transferFrom}. This is\n     * zero by default.\n     *\n     * This value changes when {approve} or {transferFrom} are called.\n     */\n    function allowance(address owner, address spender) external view returns (uint256);\n\n    /**\n     * @dev Sets `amount` as the allowance of `spender` over the caller's tokens.\n     *\n     * Returns a boolean value indicating whether the operation succeeded.\n     *\n     * IMPORTANT: Beware that changing an allowance with this method brings the risk\n     * that someone may use both the old and the new allowance by unfortunate\n     * transaction ordering. One possible solution to mitigate this race\n     * condition is to first reduce the spender's allowance to 0 and set the\n     * desired value afterwards:\n     * https://github.com/ethereum/EIPs/issues/20#issuecomment-263524729\n     *\n     * Emits an {Approval} event.\n     */\n    function approve(address spender, uint256 amount) external returns (bool);\n\n    /**\n     * @dev Moves `amount` tokens from `sender` to `recipient` using the\n     * allowance mechanism. `amount` is then deducted from the caller's\n     * allowance.\n     *\n     * Returns a boolean value indicating whether the operation succeeded.\n     *\n     * Emits a {Transfer} event.\n     */\n    function transferFrom(\n        address sender,\n        address recipient,\n        uint256 amount\n    ) external returns (bool);\n\n    /**\n     * @dev Emitted when `value` tokens are moved from one account (`from`) to\n     * another (`to`).\n     *\n     * Note that `value` may be zero.\n     */\n    event Transfer(address indexed from, address indexed to, uint256 value);\n\n    /**\n     * @dev Emitted when the allowance of a `spender` for an `owner` is set by\n     * a call to {approve}. `value` is the new allowance.\n     */\n    event Approval(address indexed owner, address indexed spender, uint256 value);\n}\n",
  "sourcePath": "@openzeppelin/contracts/token/ERC20/IERC20.sol",
  "ast": {
    "absolutePath": "@openzeppelin/contracts/token/ERC20/IERC20.sol",
    "exportedSymbols": {
      "IERC20": [
        2286
      ]
    },
    "id": 2287,
    "license": "MIT",
    "nodeType": "SourceUnit",
    "nodes": [
      {
        "id": 2210,
        "literals": [
          "solidity",
          "^",
          "0.8",
          ".0"
        ],
        "nodeType": "PragmaDirective",
        "src": "33:23:8"
      },
      {
        "abstract": false,
        "baseContracts": [],
        "canonicalName": "IERC20",
        "contractDependencies": [],
        "contractKind": "interface",
        "documentation": {
          "id": 2211,
          "nodeType": "StructuredDocumentation",
          "src": "58:70:8",
          "text": " @dev Interface of the ERC20 standard as defined in the EIP."
        },
        "fullyImplemented": false,
        "id": 2286,
        "linearizedBaseContracts": [
          2286
        ],
        "name": "IERC20",
        "nameLocation": "139:6:8",
        "nodeType": "ContractDefinition",
        "nodes": [
          {
            "documentation": {
              "id": 2212,
              "nodeType": "StructuredDocumentation",
              "src": "152:66:8",
              "text": " @dev Returns the amount of tokens in existence."
            },
            "functionSelector": "18160ddd",
            "id": 2217,
            "implemented": false,
            "kind": "function",
            "modifiers": [],
            "name": "totalSupply",
            "nameLocation": "232:11:8",
            "nodeType": "FunctionDefinition",
            "parameters": {
              "id": 2213,
              "nodeType": "ParameterList",
              "parameters": [],
              "src": "243:2:8"
            },
            "returnParameters": {
              "id": 2216,
              "nodeType": "ParameterList",
              "parameters": [
                {
                  "constant": false,
                  "id": 2215,
                  "mutability": "mutable",
                  "name": "",
                  "nameLocation": "-1:-1:-1",
                  "nodeType": "VariableDeclaration",
                  "scope": 2217,
                  "src": "269:7:8",
                  "stateVariable": false,
                  "storageLocation": "default",
                  "typeDescriptions": {
                    "typeIdentifier": "t_uint256",
                    "typeString": "uint256"
                  },
                  "typeName": {
                    "id": 2214,
                    "name": "uint256",
                    "nodeType": "ElementaryTypeName",
                    "src": "269:7:8",
                    "typeDescriptions": {
                      "typeIdentifier": "t_uint256",
                      "typeString": "uint256"
                    }
                  },
                  "visibility": "internal"
                }
              ],
              "src": "268:9:8"
            },
            "scope": 2286,
            "src": "223:55:8",
            "stateMutability": "view",
            "virtual": false,
            "visibility": "external"
          },
          {
            "documentation": {
              "id": 2218,
              "nodeType": "StructuredDocumentation",
              "src": "284:72:8",
              "text": " @dev Returns the amount of tokens owned by `account`."
            },
            "functionSelector": "70a08231",
            "id": 2225,
            "implemented": false,
            "kind": "function",
            "modifiers": [],
            "name": "balanceOf",
            "nameLocation": "370:9:8",
            "nodeType": "FunctionDefinition",
            "parameters": {
              "id": 2221,
              "nodeType": "ParameterList",
              "parameters": [
                {
                  "constant": false,
                  "id": 2220,
                  "mutability": "mutable",
                  "name": "account",
                  "nameLocation": "388:7:8",
                  "nodeType": "VariableDeclaration",
                  "scope": 2225,
                  "src": "380:15:8",
                  "stateVariable": false,
                  "storageLocation": "default",
                  "typeDescriptions": {
                    "typeIdentifier": "t_address",
                    "typeString": "address"
                  },
                  "typeName": {
                    "id": 2219,
                    "name": "address",
                    "nodeType": "ElementaryTypeName",
                    "src": "380:7:8",
                    "stateMutability": "nonpayable",
                    "typeDescriptions": {
                      "typeIdentifier": "t_address",
                      "typeString": "address"
                    }
                  },
                  "visibility": "internal"
                }
              ],
              "src": "379:17:8"
            },
            "returnParameters": {
              "id": 2224,
              "nodeType": "ParameterList",
              "parameters": [
                {
                  "constant": false,
                  "id": 2223,
                  "mutability": "mutable",
                  "name": "",
                  "nameLocation": "-1:-1:-1",
                  "nodeType": "VariableDeclaration",
                  "scope": 2225,
                  "src": "420:7:8",
                  "stateVariable": false,
                  "storageLocation": "default",
                  "typeDescriptions": {
                    "typeIdentifier": "t_uint256",
                    "typeString": "uint256"
                  },
                  "typeName": {
                    "id": 2222,
                    "name": "uint256",
                    "nodeType": "ElementaryTypeName",
                    "src": "420:7:8",
                    "typeDescriptions": {
                      "typeIdentifier": "t_uint256",
                      "typeString": "uint256"
                    }
                  },
                  "visibility": "internal"
                }
              ],
              "src": "419:9:8"
            },
            "scope": 2286,
            "src": "361:68:8",
            "stateMutability": "view",
            "virtual": false,
            "visibility": "external"
          },
          {
            "documentation": {
              "id": 2226,
              "nodeType": "StructuredDocumentation",
              "src": "435:209:8",
              "text": " @dev Moves `amount` tokens from the caller's account to `recipient`.\n Returns a boolean value indicating whether the operation succeeded.\n Emits a {Transfer} event."
            },
            "functionSelector": "a9059cbb",
            "id": 2235,
            "implemented": false,
            "kind": "function",
            "modifiers": [],
            "name": "transfer",
            "nameLocation": "658:8:8",
            "nodeType": "FunctionDefinition",
            "parameters": {
              "id": 2231,
              "nodeType": "ParameterList",
              "parameters": [
                {
                  "constant": false,
                  "id": 2228,
                  "mutability": "mutable",
                  "name": "recipient",
                  "nameLocation": "675:9:8",
                  "nodeType": "VariableDeclaration",
                  "scope": 2235,
                  "src": "667:17:8",
                  "stateVariable": false,
                  "storageLocation": "default",
                  "typeDescriptions": {
                    "typeIdentifier": "t_address",
                    "typeString": "address"
                  },
                  "typeName": {
                    "id": 2227,
                    "name": "address",
                    "nodeType": "ElementaryTypeName",
                    "src": "667:7:8",
                    "stateMutability": "nonpayable",
                    "typeDescriptions": {
                      "typeIdentifier": "t_address",
                      "typeString": "address"
                    }
                  },
                  "visibility": "internal"
                },
                {
                  "constant": false,
                  "id": 2230,
                  "mutability": "mutable",
                  "name": "amount",
                  "nameLocation": "694:6:8",
                  "nodeType": "VariableDeclaration",
                  "scope": 2235,
                  "src": "686:14:8",
                  "stateVariable": false,
                  "storageLocation": "default",
                  "typeDescriptions": {
                    "typeIdentifier": "t_uint256",
                    "typeString": "uint256"
                  },
                  "typeName": {
                    "id": 2229,
                    "name": "uint256",
                    "nodeType": "ElementaryTypeName",
                    "src": "686:7:8",
                    "typeDescriptions": {
                      "typeIdentifier": "t_uint256",
                      "typeString": "uint256"
                    }
                  },
                  "visibility": "internal"
                }
              ],
              "src": "666:35:8"
            },
            "returnParameters": {
              "id": 2234,
              "nodeType": "ParameterList",
              "parameters": [
                {
                  "constant": false,
                  "id": 2233,
                  "mutability": "mutable",
                  "name": "",
                  "nameLocation": "-1:-1:-1",
                  "nodeType": "VariableDeclaration",
                  "scope": 2235,
                  "src": "720:4:8",
                  "stateVariable": false,
                  "storageLocation": "default",
                  "typeDescriptions": {
                    "typeIdentifier": "t_bool",
                    "typeString": "bool"
                  },
                  "typeName": {
                    "id": 2232,
                    "name": "bool",
                    "nodeType": "ElementaryTypeName",
                    "src": "720:4:8",
                    "typeDescriptions": {
                      "typeIdentifier": "t_bool",
                      "typeString": "bool"
                    }
                  },
                  "visibility": "internal"
                }
              ],
              "src": "719:6:8"
            },
            "scope": 2286,
            "src": "649:77:8",
            "stateMutability": "nonpayable",
            "virtual": false,
            "visibility": "external"
          },
          {
            "documentation": {
              "id": 2236,
              "nodeType": "StructuredDocumentation",
              "src": "732:264:8",
              "text": " @dev Returns the remaining number of tokens that `spender` will be\n allowed to spend on behalf of `owner` through {transferFrom}. This is\n zero by default.\n This value changes when {approve} or {transferFrom} are called."
            },
            "functionSelector": "dd62ed3e",
            "id": 2245,
            "implemented": false,
            "kind": "function",
            "modifiers": [],
            "name": "allowance",
            "nameLocation": "1010:9:8",
            "nodeType": "FunctionDefinition",
            "parameters": {
              "id": 2241,
              "nodeType": "ParameterList",
              "parameters": [
                {
                  "constant": false,
                  "id": 2238,
                  "mutability": "mutable",
                  "name": "owner",
                  "nameLocation": "1028:5:8",
                  "nodeType": "VariableDeclaration",
                  "scope": 2245,
                  "src": "1020:13:8",
                  "stateVariable": false,
                  "storageLocation": "default",
                  "typeDescriptions": {
                    "typeIdentifier": "t_address",
                    "typeString": "address"
                  },
                  "typeName": {
                    "id": 2237,
                    "name": "address",
                    "nodeType": "ElementaryTypeName",
                    "src": "1020:7:8",
                    "stateMutability": "nonpayable",
                    "typeDescriptions": {
                      "typeIdentifier": "t_address",
                      "typeString": "address"
                    }
                  },
                  "visibility": "internal"
                },
                {
                  "constant": false,
                  "id": 2240,
                  "mutability": "mutable",
                  "name": "spender",
                  "nameLocation": "1043:7:8",
                  "nodeType": "VariableDeclaration",
                  "scope": 2245,
                  "src": "1035:15:8",
                  "stateVariable": false,
                  "storageLocation": "default",
                  "typeDescriptions": {
                    "typeIdentifier": "t_address",
                    "typeString": "address"
                  },
                  "typeName": {
                    "id": 2239,
                    "name": "address",
                    "nodeType": "ElementaryTypeName",
                    "src": "1035:7:8",
                    "stateMutability": "nonpayable",
                    "typeDescriptions": {
                      "typeIdentifier": "t_address",
                      "typeString": "address"
                    }
                  },
                  "visibility": "internal"
                }
              ],
              "src": "1019:32:8"
            },
            "returnParameters": {
              "id": 2244,
              "nodeType": "ParameterList",
              "parameters": [
                {
                  "constant": false,
                  "id": 2243,
                  "mutability": "mutable",
                  "name": "",
                  "nameLocation": "-1:-1:-1",
                  "nodeType": "VariableDeclaration",
                  "scope": 2245,
                  "src": "1075:7:8",
                  "stateVariable": false,
                  "storageLocation": "default",
                  "typeDescriptions": {
                    "typeIdentifier": "t_uint256",
                    "typeString": "uint256"
                  },
                  "typeName": {
                    "id": 2242,
                    "name": "uint256",
                    "nodeType": "ElementaryTypeName",
                    "src": "1075:7:8",
                    "typeDescriptions": {
                      "typeIdentifier": "t_uint256",
                      "typeString": "uint256"
                    }
                  },
                  "visibility": "internal"
                }
              ],
              "src": "1074:9:8"
            },
            "scope": 2286,
            "src": "1001:83:8",
            "stateMutability": "view",
            "virtual": false,
            "visibility": "external"
          },
          {
            "documentation": {
              "id": 2246,
              "nodeType": "StructuredDocumentation",
              "src": "1090:642:8",
              "text": " @dev Sets `amount` as the allowance of `spender` over the caller's tokens.\n Returns a boolean value indicating whether the operation succeeded.\n IMPORTANT: Beware that changing an allowance with this method brings the risk\n that someone may use both the old and the new allowance by unfortunate\n transaction ordering. One possible solution to mitigate this race\n condition is to first reduce the spender's allowance to 0 and set the\n desired value afterwards:\n https://github.com/ethereum/EIPs/issues/20#issuecomment-263524729\n Emits an {Approval} event."
            },
            "functionSelector": "095ea7b3",
            "id": 2255,
            "implemented": false,
            "kind": "function",
            "modifiers": [],
            "name": "approve",
            "nameLocation": "1746:7:8",
            "nodeType": "FunctionDefinition",
            "parameters": {
              "id": 2251,
              "nodeType": "ParameterList",
              "parameters": [
                {
                  "constant": false,
                  "id": 2248,
                  "mutability": "mutable",
                  "name": "spender",
                  "nameLocation": "1762:7:8",
                  "nodeType": "VariableDeclaration",
                  "scope": 2255,
                  "src": "1754:15:8",
                  "stateVariable": false,
                  "storageLocation": "default",
                  "typeDescriptions": {
                    "typeIdentifier": "t_address",
                    "typeString": "address"
                  },
                  "typeName": {
                    "id": 2247,
                    "name": "address",
                    "nodeType": "ElementaryTypeName",
                    "src": "1754:7:8",
                    "stateMutability": "nonpayable",
                    "typeDescriptions": {
                      "typeIdentifier": "t_address",
                      "typeString": "address"
                    }
                  },
                  "visibility": "internal"
                },
                {
                  "constant": false,
                  "id": 2250,
                  "mutability": "mutable",
                  "name": "amount",
                  "nameLocation": "1779:6:8",
                  "nodeType": "VariableDeclaration",
                  "scope": 2255,
                  "src": "1771:14:8",
                  "stateVariable": false,
                  "storageLocation": "default",
                  "typeDescriptions": {
                    "typeIdentifier": "t_uint256",
                    "typeString": "uint256"
                  },
                  "typeName": {
                    "id": 2249,
                    "name": "uint256",
                    "nodeType": "ElementaryTypeName",
                    "src": "1771:7:8",
                    "typeDescriptions": {
                      "typeIdentifier": "t_uint256",
                      "typeString": "uint256"
                    }
                  },
                  "visibility": "internal"
                }
              ],
              "src": "1753:33:8"
            },
            "returnParameters": {
              "id": 2254,
              "nodeType": "ParameterList",
              "parameters": [
                {
                  "constant": false,
                  "id": 2253,
                  "mutability": "mutable",
                  "name": "",
                  "nameLocation": "-1:-1:-1",
                  "nodeType": "VariableDeclaration",
                  "scope": 2255,
                  "src": "1805:4:8",
                  "stateVariable": false,
                  "storageLocation": "default",
                  "typeDescriptions": {
                    "typeIdentifier": "t_bool",
                    "typeString": "bool"
                  },
                  "typeName": {
                    "id": 2252,
                    "name": "bool",
                    "nodeType": "ElementaryTypeName",
                    "src": "1805:4:8",
                    "typeDescriptions": {
                      "typeIdentifier": "t_bool",
                      "typeString": "bool"
                    }
                  },
                  "visibility": "internal"
                }
              ],
              "src": "1804:6:8"
            },
            "scope": 2286,
            "src": "1737:74:8",
            "stateMutability": "nonpayable",
            "virtual": false,
            "visibility": "external"
          },
          {
            "documentation": {
              "id": 2256,
              "nodeType": "StructuredDocumentation",
              "src": "1817:296:8",
              "text": " @dev Moves `amount` tokens from `sender` to `recipient` using the\n allowance mechanism. `amount` is then deducted from the caller's\n allowance.\n Returns a boolean value indicating whether the operation succeeded.\n Emits a {Transfer} event."
            },
            "functionSelector": "23b872dd",
            "id": 2267,
            "implemented": false,
            "kind": "function",
            "modifiers": [],
            "name": "transferFrom",
            "nameLocation": "2127:12:8",
            "nodeType": "FunctionDefinition",
            "parameters": {
              "id": 2263,
              "nodeType": "ParameterList",
              "parameters": [
                {
                  "constant": false,
                  "id": 2258,
                  "mutability": "mutable",
                  "name": "sender",
                  "nameLocation": "2157:6:8",
                  "nodeType": "VariableDeclaration",
                  "scope": 2267,
                  "src": "2149:14:8",
                  "stateVariable": false,
                  "storageLocation": "default",
                  "typeDescriptions": {
                    "typeIdentifier": "t_address",
                    "typeString": "address"
                  },
                  "typeName": {
                    "id": 2257,
                    "name": "address",
                    "nodeType": "ElementaryTypeName",
                    "src": "2149:7:8",
                    "stateMutability": "nonpayable",
                    "typeDescriptions": {
                      "typeIdentifier": "t_address",
                      "typeString": "address"
                    }
                  },
                  "visibility": "internal"
                },
                {
                  "constant": false,
                  "id": 2260,
                  "mutability": "mutable",
                  "name": "recipient",
                  "nameLocation": "2181:9:8",
                  "nodeType": "VariableDeclaration",
                  "scope": 2267,
                  "src": "2173:17:8",
                  "stateVariable": false,
                  "storageLocation": "default",
                  "typeDescriptions": {
                    "typeIdentifier": "t_address",
                    "typeString": "address"
                  },
                  "typeName": {
                    "id": 2259,
                    "name": "address",
                    "nodeType": "ElementaryTypeName",
                    "src": "2173:7:8",
                    "stateMutability": "nonpayable",
                    "typeDescriptions": {
                      "typeIdentifier": "t_address",
                      "typeString": "address"
                    }
                  },
                  "visibility": "internal"
                },
                {
                  "constant": false,
                  "id": 2262,
                  "mutability": "mutable",
                  "name": "amount",
                  "nameLocation": "2208:6:8",
                  "nodeType": "VariableDeclaration",
                  "scope": 2267,
                  "src": "2200:14:8",
                  "stateVariable": false,
                  "storageLocation": "default",
                  "typeDescriptions": {
                    "typeIdentifier": "t_uint256",
                    "typeString": "uint256"
                  },
                  "typeName": {
                    "id": 2261,
                    "name": "uint256",
                    "nodeType": "ElementaryTypeName",
                    "src": "2200:7:8",
                    "typeDescriptions": {
                      "typeIdentifier": "t_uint256",
                      "typeString": "uint256"
                    }
                  },
                  "visibility": "internal"
                }
              ],
              "src": "2139:81:8"
            },
            "returnParameters": {
              "id": 2266,
              "nodeType": "ParameterList",
              "parameters": [
                {
                  "constant": false,
                  "id": 2265,
                  "mutability": "mutable",
                  "name": "",
                  "nameLocation": "-1:-1:-1",
                  "nodeType": "VariableDeclaration",
                  "scope": 2267,
                  "src": "2239:4:8",
                  "stateVariable": false,
                  "storageLocation": "default",
                  "typeDescriptions": {
                    "typeIdentifier": "t_bool",
                    "typeString": "bool"
                  },
                  "typeName": {
                    "id": 2264,
                    "name": "bool",
                    "nodeType": "ElementaryTypeName",
                    "src": "2239:4:8",
                    "typeDescriptions": {
                      "typeIdentifier": "t_bool",
                      "typeString": "bool"
                    }
                  },
                  "visibility": "internal"
                }
              ],
              "src": "2238:6:8"
            },
            "scope": 2286,
            "src": "2118:127:8",
            "stateMutability": "nonpayable",
            "virtual": false,
            "visibility": "external"
          },
          {
            "anonymous": false,
            "documentation": {
              "id": 2268,
              "nodeType": "StructuredDocumentation",
              "src": "2251:158:8",
              "text": " @dev Emitted when `value` tokens are moved from one account (`from`) to\n another (`to`).\n Note that `value` may be zero."
            },
            "id": 2276,
            "name": "Transfer",
            "nameLocation": "2420:8:8",
            "nodeType": "EventDefinition",
            "parameters": {
              "id": 2275,
              "nodeType": "ParameterList",
              "parameters": [
                {
                  "constant": false,
                  "id": 2270,
                  "indexed": true,
                  "mutability": "mutable",
                  "name": "from",
                  "nameLocation": "2445:4:8",
                  "nodeType": "VariableDeclaration",
                  "scope": 2276,
                  "src": "2429:20:8",
                  "stateVariable": false,
                  "storageLocation": "default",
                  "typeDescriptions": {
                    "typeIdentifier": "t_address",
                    "typeString": "address"
                  },
                  "typeName": {
                    "id": 2269,
                    "name": "address",
                    "nodeType": "ElementaryTypeName",
                    "src": "2429:7:8",
                    "stateMutability": "nonpayable",
                    "typeDescriptions": {
                      "typeIdentifier": "t_address",
                      "typeString": "address"
                    }
                  },
                  "visibility": "internal"
                },
                {
                  "constant": false,
                  "id": 2272,
                  "indexed": true,
                  "mutability": "mutable",
                  "name": "to",
                  "nameLocation": "2467:2:8",
                  "nodeType": "VariableDeclaration",
                  "scope": 2276,
                  "src": "2451:18:8",
                  "stateVariable": false,
                  "storageLocation": "default",
                  "typeDescriptions": {
                    "typeIdentifier": "t_address",
                    "typeString": "address"
                  },
                  "typeName": {
                    "id": 2271,
                    "name": "address",
                    "nodeType": "ElementaryTypeName",
                    "src": "2451:7:8",
                    "stateMutability": "nonpayable",
                    "typeDescriptions": {
                      "typeIdentifier": "t_address",
                      "typeString": "address"
                    }
                  },
                  "visibility": "internal"
                },
                {
                  "constant": false,
                  "id": 2274,
                  "indexed": false,
                  "mutability": "mutable",
                  "name": "value",
                  "nameLocation": "2479:5:8",
                  "nodeType": "VariableDeclaration",
                  "scope": 2276,
                  "src": "2471:13:8",
                  "stateVariable": false,
                  "storageLocation": "default",
                  "typeDescriptions": {
                    "typeIdentifier": "t_uint256",
                    "typeString": "uint256"
                  },
                  "typeName": {
                    "id": 2273,
                    "name": "uint256",
                    "nodeType": "ElementaryTypeName",
                    "src": "2471:7:8",
                    "typeDescriptions": {
                      "typeIdentifier": "t_uint256",
                      "typeString": "uint256"
                    }
                  },
                  "visibility": "internal"
                }
              ],
              "src": "2428:57:8"
            },
            "src": "2414:72:8"
          },
          {
            "anonymous": false,
            "documentation": {
              "id": 2277,
              "nodeType": "StructuredDocumentation",
              "src": "2492:148:8",
              "text": " @dev Emitted when the allowance of a `spender` for an `owner` is set by\n a call to {approve}. `value` is the new allowance."
            },
            "id": 2285,
            "name": "Approval",
            "nameLocation": "2651:8:8",
            "nodeType": "EventDefinition",
            "parameters": {
              "id": 2284,
              "nodeType": "ParameterList",
              "parameters": [
                {
                  "constant": false,
                  "id": 2279,
                  "indexed": true,
                  "mutability": "mutable",
                  "name": "owner",
                  "nameLocation": "2676:5:8",
                  "nodeType": "VariableDeclaration",
                  "scope": 2285,
                  "src": "2660:21:8",
                  "stateVariable": false,
                  "storageLocation": "default",
                  "typeDescriptions": {
                    "typeIdentifier": "t_address",
                    "typeString": "address"
                  },
                  "typeName": {
                    "id": 2278,
                    "name": "address",
                    "nodeType": "ElementaryTypeName",
                    "src": "2660:7:8",
                    "stateMutability": "nonpayable",
                    "typeDescriptions": {
                      "typeIdentifier": "t_address",
                      "typeString": "address"
                    }
                  },
                  "visibility": "internal"
                },
                {
                  "constant": false,
                  "id": 2281,
                  "indexed": true,
                  "mutability": "mutable",
                  "name": "spender",
                  "nameLocation": "2699:7:8",
                  "nodeType": "VariableDeclaration",
                  "scope": 2285,
                  "src": "2683:23:8",
                  "stateVariable": false,
                  "storageLocation": "default",
                  "typeDescriptions": {
                    "typeIdentifier": "t_address",
                    "typeString": "address"
                  },
                  "typeName": {
                    "id": 2280,
                    "name": "address",
                    "nodeType": "ElementaryTypeName",
                    "src": "2683:7:8",
                    "stateMutability": "nonpayable",
                    "typeDescriptions": {
                      "typeIdentifier": "t_address",
                      "typeString": "address"
                    }
                  },
                  "visibility": "internal"
                },
                {
                  "constant": false,
                  "id": 2283,
                  "indexed": false,
                  "mutability": "mutable",
                  "name": "value",
                  "nameLocation": "2716:5:8",
                  "nodeType": "VariableDeclaration",
                  "scope": 2285,
                  "src": "2708:13:8",
                  "stateVariable": false,
                  "storageLocation": "default",
                  "typeDescriptions": {
                    "typeIdentifier": "t_uint256",
                    "typeString": "uint256"
                  },
                  "typeName": {
                    "id": 2282,
                    "name": "uint256",
                    "nodeType": "ElementaryTypeName",
                    "src": "2708:7:8",
                    "typeDescriptions": {
                      "typeIdentifier": "t_uint256",
                      "typeString": "uint256"
                    }
                  },
                  "visibility": "internal"
                }
              ],
              "src": "2659:63:8"
            },
            "src": "2645:78:8"
          }
        ],
        "scope": 2287,
        "src": "129:2596:8",
        "usedErrors": []
      }
    ],
    "src": "33:2693:8"
  },
  "legacyAST": {
    "absolutePath": "@openzeppelin/contracts/token/ERC20/IERC20.sol",
    "exportedSymbols": {
      "IERC20": [
        2286
      ]
    },
    "id": 2287,
    "license": "MIT",
    "nodeType": "SourceUnit",
    "nodes": [
      {
        "id": 2210,
        "literals": [
          "solidity",
          "^",
          "0.8",
          ".0"
        ],
        "nodeType": "PragmaDirective",
        "src": "33:23:8"
      },
      {
        "abstract": false,
        "baseContracts": [],
        "canonicalName": "IERC20",
        "contractDependencies": [],
        "contractKind": "interface",
        "documentation": {
          "id": 2211,
          "nodeType": "StructuredDocumentation",
          "src": "58:70:8",
          "text": " @dev Interface of the ERC20 standard as defined in the EIP."
        },
        "fullyImplemented": false,
        "id": 2286,
        "linearizedBaseContracts": [
          2286
        ],
        "name": "IERC20",
        "nameLocation": "139:6:8",
        "nodeType": "ContractDefinition",
        "nodes": [
          {
            "documentation": {
              "id": 2212,
              "nodeType": "StructuredDocumentation",
              "src": "152:66:8",
              "text": " @dev Returns the amount of tokens in existence."
            },
            "functionSelector": "18160ddd",
            "id": 2217,
            "implemented": false,
            "kind": "function",
            "modifiers": [],
            "name": "totalSupply",
            "nameLocation": "232:11:8",
            "nodeType": "FunctionDefinition",
            "parameters": {
              "id": 2213,
              "nodeType": "ParameterList",
              "parameters": [],
              "src": "243:2:8"
            },
            "returnParameters": {
              "id": 2216,
              "nodeType": "ParameterList",
              "parameters": [
                {
                  "constant": false,
                  "id": 2215,
                  "mutability": "mutable",
                  "name": "",
                  "nameLocation": "-1:-1:-1",
                  "nodeType": "VariableDeclaration",
                  "scope": 2217,
                  "src": "269:7:8",
                  "stateVariable": false,
                  "storageLocation": "default",
                  "typeDescriptions": {
                    "typeIdentifier": "t_uint256",
                    "typeString": "uint256"
                  },
                  "typeName": {
                    "id": 2214,
                    "name": "uint256",
                    "nodeType": "ElementaryTypeName",
                    "src": "269:7:8",
                    "typeDescriptions": {
                      "typeIdentifier": "t_uint256",
                      "typeString": "uint256"
                    }
                  },
                  "visibility": "internal"
                }
              ],
              "src": "268:9:8"
            },
            "scope": 2286,
            "src": "223:55:8",
            "stateMutability": "view",
            "virtual": false,
            "visibility": "external"
          },
          {
            "documentation": {
              "id": 2218,
              "nodeType": "StructuredDocumentation",
              "src": "284:72:8",
              "text": " @dev Returns the amount of tokens owned by `account`."
            },
            "functionSelector": "70a08231",
            "id": 2225,
            "implemented": false,
            "kind": "function",
            "modifiers": [],
            "name": "balanceOf",
            "nameLocation": "370:9:8",
            "nodeType": "FunctionDefinition",
            "parameters": {
              "id": 2221,
              "nodeType": "ParameterList",
              "parameters": [
                {
                  "constant": false,
                  "id": 2220,
                  "mutability": "mutable",
                  "name": "account",
                  "nameLocation": "388:7:8",
                  "nodeType": "VariableDeclaration",
                  "scope": 2225,
                  "src": "380:15:8",
                  "stateVariable": false,
                  "storageLocation": "default",
                  "typeDescriptions": {
                    "typeIdentifier": "t_address",
                    "typeString": "address"
                  },
                  "typeName": {
                    "id": 2219,
                    "name": "address",
                    "nodeType": "ElementaryTypeName",
                    "src": "380:7:8",
                    "stateMutability": "nonpayable",
                    "typeDescriptions": {
                      "typeIdentifier": "t_address",
                      "typeString": "address"
                    }
                  },
                  "visibility": "internal"
                }
              ],
              "src": "379:17:8"
            },
            "returnParameters": {
              "id": 2224,
              "nodeType": "ParameterList",
              "parameters": [
                {
                  "constant": false,
                  "id": 2223,
                  "mutability": "mutable",
                  "name": "",
                  "nameLocation": "-1:-1:-1",
                  "nodeType": "VariableDeclaration",
                  "scope": 2225,
                  "src": "420:7:8",
                  "stateVariable": false,
                  "storageLocation": "default",
                  "typeDescriptions": {
                    "typeIdentifier": "t_uint256",
                    "typeString": "uint256"
                  },
                  "typeName": {
                    "id": 2222,
                    "name": "uint256",
                    "nodeType": "ElementaryTypeName",
                    "src": "420:7:8",
                    "typeDescriptions": {
                      "typeIdentifier": "t_uint256",
                      "typeString": "uint256"
                    }
                  },
                  "visibility": "internal"
                }
              ],
              "src": "419:9:8"
            },
            "scope": 2286,
            "src": "361:68:8",
            "stateMutability": "view",
            "virtual": false,
            "visibility": "external"
          },
          {
            "documentation": {
              "id": 2226,
              "nodeType": "StructuredDocumentation",
              "src": "435:209:8",
              "text": " @dev Moves `amount` tokens from the caller's account to `recipient`.\n Returns a boolean value indicating whether the operation succeeded.\n Emits a {Transfer} event."
            },
            "functionSelector": "a9059cbb",
            "id": 2235,
            "implemented": false,
            "kind": "function",
            "modifiers": [],
            "name": "transfer",
            "nameLocation": "658:8:8",
            "nodeType": "FunctionDefinition",
            "parameters": {
              "id": 2231,
              "nodeType": "ParameterList",
              "parameters": [
                {
                  "constant": false,
                  "id": 2228,
                  "mutability": "mutable",
                  "name": "recipient",
                  "nameLocation": "675:9:8",
                  "nodeType": "VariableDeclaration",
                  "scope": 2235,
                  "src": "667:17:8",
                  "stateVariable": false,
                  "storageLocation": "default",
                  "typeDescriptions": {
                    "typeIdentifier": "t_address",
                    "typeString": "address"
                  },
                  "typeName": {
                    "id": 2227,
                    "name": "address",
                    "nodeType": "ElementaryTypeName",
                    "src": "667:7:8",
                    "stateMutability": "nonpayable",
                    "typeDescriptions": {
                      "typeIdentifier": "t_address",
                      "typeString": "address"
                    }
                  },
                  "visibility": "internal"
                },
                {
                  "constant": false,
                  "id": 2230,
                  "mutability": "mutable",
                  "name": "amount",
                  "nameLocation": "694:6:8",
                  "nodeType": "VariableDeclaration",
                  "scope": 2235,
                  "src": "686:14:8",
                  "stateVariable": false,
                  "storageLocation": "default",
                  "typeDescriptions": {
                    "typeIdentifier": "t_uint256",
                    "typeString": "uint256"
                  },
                  "typeName": {
                    "id": 2229,
                    "name": "uint256",
                    "nodeType": "ElementaryTypeName",
                    "src": "686:7:8",
                    "typeDescriptions": {
                      "typeIdentifier": "t_uint256",
                      "typeString": "uint256"
                    }
                  },
                  "visibility": "internal"
                }
              ],
              "src": "666:35:8"
            },
            "returnParameters": {
              "id": 2234,
              "nodeType": "ParameterList",
              "parameters": [
                {
                  "constant": false,
                  "id": 2233,
                  "mutability": "mutable",
                  "name": "",
                  "nameLocation": "-1:-1:-1",
                  "nodeType": "VariableDeclaration",
                  "scope": 2235,
                  "src": "720:4:8",
                  "stateVariable": false,
                  "storageLocation": "default",
                  "typeDescriptions": {
                    "typeIdentifier": "t_bool",
                    "typeString": "bool"
                  },
                  "typeName": {
                    "id": 2232,
                    "name": "bool",
                    "nodeType": "ElementaryTypeName",
                    "src": "720:4:8",
                    "typeDescriptions": {
                      "typeIdentifier": "t_bool",
                      "typeString": "bool"
                    }
                  },
                  "visibility": "internal"
                }
              ],
              "src": "719:6:8"
            },
            "scope": 2286,
            "src": "649:77:8",
            "stateMutability": "nonpayable",
            "virtual": false,
            "visibility": "external"
          },
          {
            "documentation": {
              "id": 2236,
              "nodeType": "StructuredDocumentation",
              "src": "732:264:8",
              "text": " @dev Returns the remaining number of tokens that `spender` will be\n allowed to spend on behalf of `owner` through {transferFrom}. This is\n zero by default.\n This value changes when {approve} or {transferFrom} are called."
            },
            "functionSelector": "dd62ed3e",
            "id": 2245,
            "implemented": false,
            "kind": "function",
            "modifiers": [],
            "name": "allowance",
            "nameLocation": "1010:9:8",
            "nodeType": "FunctionDefinition",
            "parameters": {
              "id": 2241,
              "nodeType": "ParameterList",
              "parameters": [
                {
                  "constant": false,
                  "id": 2238,
                  "mutability": "mutable",
                  "name": "owner",
                  "nameLocation": "1028:5:8",
                  "nodeType": "VariableDeclaration",
                  "scope": 2245,
                  "src": "1020:13:8",
                  "stateVariable": false,
                  "storageLocation": "default",
                  "typeDescriptions": {
                    "typeIdentifier": "t_address",
                    "typeString": "address"
                  },
                  "typeName": {
                    "id": 2237,
                    "name": "address",
                    "nodeType": "ElementaryTypeName",
                    "src": "1020:7:8",
                    "stateMutability": "nonpayable",
                    "typeDescriptions": {
                      "typeIdentifier": "t_address",
                      "typeString": "address"
                    }
                  },
                  "visibility": "internal"
                },
                {
                  "constant": false,
                  "id": 2240,
                  "mutability": "mutable",
                  "name": "spender",
                  "nameLocation": "1043:7:8",
                  "nodeType": "VariableDeclaration",
                  "scope": 2245,
                  "src": "1035:15:8",
                  "stateVariable": false,
                  "storageLocation": "default",
                  "typeDescriptions": {
                    "typeIdentifier": "t_address",
                    "typeString": "address"
                  },
                  "typeName": {
                    "id": 2239,
                    "name": "address",
                    "nodeType": "ElementaryTypeName",
                    "src": "1035:7:8",
                    "stateMutability": "nonpayable",
                    "typeDescriptions": {
                      "typeIdentifier": "t_address",
                      "typeString": "address"
                    }
                  },
                  "visibility": "internal"
                }
              ],
              "src": "1019:32:8"
            },
            "returnParameters": {
              "id": 2244,
              "nodeType": "ParameterList",
              "parameters": [
                {
                  "constant": false,
                  "id": 2243,
                  "mutability": "mutable",
                  "name": "",
                  "nameLocation": "-1:-1:-1",
                  "nodeType": "VariableDeclaration",
                  "scope": 2245,
                  "src": "1075:7:8",
                  "stateVariable": false,
                  "storageLocation": "default",
                  "typeDescriptions": {
                    "typeIdentifier": "t_uint256",
                    "typeString": "uint256"
                  },
                  "typeName": {
                    "id": 2242,
                    "name": "uint256",
                    "nodeType": "ElementaryTypeName",
                    "src": "1075:7:8",
                    "typeDescriptions": {
                      "typeIdentifier": "t_uint256",
                      "typeString": "uint256"
                    }
                  },
                  "visibility": "internal"
                }
              ],
              "src": "1074:9:8"
            },
            "scope": 2286,
            "src": "1001:83:8",
            "stateMutability": "view",
            "virtual": false,
            "visibility": "external"
          },
          {
            "documentation": {
              "id": 2246,
              "nodeType": "StructuredDocumentation",
              "src": "1090:642:8",
              "text": " @dev Sets `amount` as the allowance of `spender` over the caller's tokens.\n Returns a boolean value indicating whether the operation succeeded.\n IMPORTANT: Beware that changing an allowance with this method brings the risk\n that someone may use both the old and the new allowance by unfortunate\n transaction ordering. One possible solution to mitigate this race\n condition is to first reduce the spender's allowance to 0 and set the\n desired value afterwards:\n https://github.com/ethereum/EIPs/issues/20#issuecomment-263524729\n Emits an {Approval} event."
            },
            "functionSelector": "095ea7b3",
            "id": 2255,
            "implemented": false,
            "kind": "function",
            "modifiers": [],
            "name": "approve",
            "nameLocation": "1746:7:8",
            "nodeType": "FunctionDefinition",
            "parameters": {
              "id": 2251,
              "nodeType": "ParameterList",
              "parameters": [
                {
                  "constant": false,
                  "id": 2248,
                  "mutability": "mutable",
                  "name": "spender",
                  "nameLocation": "1762:7:8",
                  "nodeType": "VariableDeclaration",
                  "scope": 2255,
                  "src": "1754:15:8",
                  "stateVariable": false,
                  "storageLocation": "default",
                  "typeDescriptions": {
                    "typeIdentifier": "t_address",
                    "typeString": "address"
                  },
                  "typeName": {
                    "id": 2247,
                    "name": "address",
                    "nodeType": "ElementaryTypeName",
                    "src": "1754:7:8",
                    "stateMutability": "nonpayable",
                    "typeDescriptions": {
                      "typeIdentifier": "t_address",
                      "typeString": "address"
                    }
                  },
                  "visibility": "internal"
                },
                {
                  "constant": false,
                  "id": 2250,
                  "mutability": "mutable",
                  "name": "amount",
                  "nameLocation": "1779:6:8",
                  "nodeType": "VariableDeclaration",
                  "scope": 2255,
                  "src": "1771:14:8",
                  "stateVariable": false,
                  "storageLocation": "default",
                  "typeDescriptions": {
                    "typeIdentifier": "t_uint256",
                    "typeString": "uint256"
                  },
                  "typeName": {
                    "id": 2249,
                    "name": "uint256",
                    "nodeType": "ElementaryTypeName",
                    "src": "1771:7:8",
                    "typeDescriptions": {
                      "typeIdentifier": "t_uint256",
                      "typeString": "uint256"
                    }
                  },
                  "visibility": "internal"
                }
              ],
              "src": "1753:33:8"
            },
            "returnParameters": {
              "id": 2254,
              "nodeType": "ParameterList",
              "parameters": [
                {
                  "constant": false,
                  "id": 2253,
                  "mutability": "mutable",
                  "name": "",
                  "nameLocation": "-1:-1:-1",
                  "nodeType": "VariableDeclaration",
                  "scope": 2255,
                  "src": "1805:4:8",
                  "stateVariable": false,
                  "storageLocation": "default",
                  "typeDescriptions": {
                    "typeIdentifier": "t_bool",
                    "typeString": "bool"
                  },
                  "typeName": {
                    "id": 2252,
                    "name": "bool",
                    "nodeType": "ElementaryTypeName",
                    "src": "1805:4:8",
                    "typeDescriptions": {
                      "typeIdentifier": "t_bool",
                      "typeString": "bool"
                    }
                  },
                  "visibility": "internal"
                }
              ],
              "src": "1804:6:8"
            },
            "scope": 2286,
            "src": "1737:74:8",
            "stateMutability": "nonpayable",
            "virtual": false,
            "visibility": "external"
          },
          {
            "documentation": {
              "id": 2256,
              "nodeType": "StructuredDocumentation",
              "src": "1817:296:8",
              "text": " @dev Moves `amount` tokens from `sender` to `recipient` using the\n allowance mechanism. `amount` is then deducted from the caller's\n allowance.\n Returns a boolean value indicating whether the operation succeeded.\n Emits a {Transfer} event."
            },
            "functionSelector": "23b872dd",
            "id": 2267,
            "implemented": false,
            "kind": "function",
            "modifiers": [],
            "name": "transferFrom",
            "nameLocation": "2127:12:8",
            "nodeType": "FunctionDefinition",
            "parameters": {
              "id": 2263,
              "nodeType": "ParameterList",
              "parameters": [
                {
                  "constant": false,
                  "id": 2258,
                  "mutability": "mutable",
                  "name": "sender",
                  "nameLocation": "2157:6:8",
                  "nodeType": "VariableDeclaration",
                  "scope": 2267,
                  "src": "2149:14:8",
                  "stateVariable": false,
                  "storageLocation": "default",
                  "typeDescriptions": {
                    "typeIdentifier": "t_address",
                    "typeString": "address"
                  },
                  "typeName": {
                    "id": 2257,
                    "name": "address",
                    "nodeType": "ElementaryTypeName",
                    "src": "2149:7:8",
                    "stateMutability": "nonpayable",
                    "typeDescriptions": {
                      "typeIdentifier": "t_address",
                      "typeString": "address"
                    }
                  },
                  "visibility": "internal"
                },
                {
                  "constant": false,
                  "id": 2260,
                  "mutability": "mutable",
                  "name": "recipient",
                  "nameLocation": "2181:9:8",
                  "nodeType": "VariableDeclaration",
                  "scope": 2267,
                  "src": "2173:17:8",
                  "stateVariable": false,
                  "storageLocation": "default",
                  "typeDescriptions": {
                    "typeIdentifier": "t_address",
                    "typeString": "address"
                  },
                  "typeName": {
                    "id": 2259,
                    "name": "address",
                    "nodeType": "ElementaryTypeName",
                    "src": "2173:7:8",
                    "stateMutability": "nonpayable",
                    "typeDescriptions": {
                      "typeIdentifier": "t_address",
                      "typeString": "address"
                    }
                  },
                  "visibility": "internal"
                },
                {
                  "constant": false,
                  "id": 2262,
                  "mutability": "mutable",
                  "name": "amount",
                  "nameLocation": "2208:6:8",
                  "nodeType": "VariableDeclaration",
                  "scope": 2267,
                  "src": "2200:14:8",
                  "stateVariable": false,
                  "storageLocation": "default",
                  "typeDescriptions": {
                    "typeIdentifier": "t_uint256",
                    "typeString": "uint256"
                  },
                  "typeName": {
                    "id": 2261,
                    "name": "uint256",
                    "nodeType": "ElementaryTypeName",
                    "src": "2200:7:8",
                    "typeDescriptions": {
                      "typeIdentifier": "t_uint256",
                      "typeString": "uint256"
                    }
                  },
                  "visibility": "internal"
                }
              ],
              "src": "2139:81:8"
            },
            "returnParameters": {
              "id": 2266,
              "nodeType": "ParameterList",
              "parameters": [
                {
                  "constant": false,
                  "id": 2265,
                  "mutability": "mutable",
                  "name": "",
                  "nameLocation": "-1:-1:-1",
                  "nodeType": "VariableDeclaration",
                  "scope": 2267,
                  "src": "2239:4:8",
                  "stateVariable": false,
                  "storageLocation": "default",
                  "typeDescriptions": {
                    "typeIdentifier": "t_bool",
                    "typeString": "bool"
                  },
                  "typeName": {
                    "id": 2264,
                    "name": "bool",
                    "nodeType": "ElementaryTypeName",
                    "src": "2239:4:8",
                    "typeDescriptions": {
                      "typeIdentifier": "t_bool",
                      "typeString": "bool"
                    }
                  },
                  "visibility": "internal"
                }
              ],
              "src": "2238:6:8"
            },
            "scope": 2286,
            "src": "2118:127:8",
            "stateMutability": "nonpayable",
            "virtual": false,
            "visibility": "external"
          },
          {
            "anonymous": false,
            "documentation": {
              "id": 2268,
              "nodeType": "StructuredDocumentation",
              "src": "2251:158:8",
              "text": " @dev Emitted when `value` tokens are moved from one account (`from`) to\n another (`to`).\n Note that `value` may be zero."
            },
            "id": 2276,
            "name": "Transfer",
            "nameLocation": "2420:8:8",
            "nodeType": "EventDefinition",
            "parameters": {
              "id": 2275,
              "nodeType": "ParameterList",
              "parameters": [
                {
                  "constant": false,
                  "id": 2270,
                  "indexed": true,
                  "mutability": "mutable",
                  "name": "from",
                  "nameLocation": "2445:4:8",
                  "nodeType": "VariableDeclaration",
                  "scope": 2276,
                  "src": "2429:20:8",
                  "stateVariable": false,
                  "storageLocation": "default",
                  "typeDescriptions": {
                    "typeIdentifier": "t_address",
                    "typeString": "address"
                  },
                  "typeName": {
                    "id": 2269,
                    "name": "address",
                    "nodeType": "ElementaryTypeName",
                    "src": "2429:7:8",
                    "stateMutability": "nonpayable",
                    "typeDescriptions": {
                      "typeIdentifier": "t_address",
                      "typeString": "address"
                    }
                  },
                  "visibility": "internal"
                },
                {
                  "constant": false,
                  "id": 2272,
                  "indexed": true,
                  "mutability": "mutable",
                  "name": "to",
                  "nameLocation": "2467:2:8",
                  "nodeType": "VariableDeclaration",
                  "scope": 2276,
                  "src": "2451:18:8",
                  "stateVariable": false,
                  "storageLocation": "default",
                  "typeDescriptions": {
                    "typeIdentifier": "t_address",
                    "typeString": "address"
                  },
                  "typeName": {
                    "id": 2271,
                    "name": "address",
                    "nodeType": "ElementaryTypeName",
                    "src": "2451:7:8",
                    "stateMutability": "nonpayable",
                    "typeDescriptions": {
                      "typeIdentifier": "t_address",
                      "typeString": "address"
                    }
                  },
                  "visibility": "internal"
                },
                {
                  "constant": false,
                  "id": 2274,
                  "indexed": false,
                  "mutability": "mutable",
                  "name": "value",
                  "nameLocation": "2479:5:8",
                  "nodeType": "VariableDeclaration",
                  "scope": 2276,
                  "src": "2471:13:8",
                  "stateVariable": false,
                  "storageLocation": "default",
                  "typeDescriptions": {
                    "typeIdentifier": "t_uint256",
                    "typeString": "uint256"
                  },
                  "typeName": {
                    "id": 2273,
                    "name": "uint256",
                    "nodeType": "ElementaryTypeName",
                    "src": "2471:7:8",
                    "typeDescriptions": {
                      "typeIdentifier": "t_uint256",
                      "typeString": "uint256"
                    }
                  },
                  "visibility": "internal"
                }
              ],
              "src": "2428:57:8"
            },
            "src": "2414:72:8"
          },
          {
            "anonymous": false,
            "documentation": {
              "id": 2277,
              "nodeType": "StructuredDocumentation",
              "src": "2492:148:8",
              "text": " @dev Emitted when the allowance of a `spender` for an `owner` is set by\n a call to {approve}. `value` is the new allowance."
            },
            "id": 2285,
            "name": "Approval",
            "nameLocation": "2651:8:8",
            "nodeType": "EventDefinition",
            "parameters": {
              "id": 2284,
              "nodeType": "ParameterList",
              "parameters": [
                {
                  "constant": false,
                  "id": 2279,
                  "indexed": true,
                  "mutability": "mutable",
                  "name": "owner",
                  "nameLocation": "2676:5:8",
                  "nodeType": "VariableDeclaration",
                  "scope": 2285,
                  "src": "2660:21:8",
                  "stateVariable": false,
                  "storageLocation": "default",
                  "typeDescriptions": {
                    "typeIdentifier": "t_address",
                    "typeString": "address"
                  },
                  "typeName": {
                    "id": 2278,
                    "name": "address",
                    "nodeType": "ElementaryTypeName",
                    "src": "2660:7:8",
                    "stateMutability": "nonpayable",
                    "typeDescriptions": {
                      "typeIdentifier": "t_address",
                      "typeString": "address"
                    }
                  },
                  "visibility": "internal"
                },
                {
                  "constant": false,
                  "id": 2281,
                  "indexed": true,
                  "mutability": "mutable",
                  "name": "spender",
                  "nameLocation": "2699:7:8",
                  "nodeType": "VariableDeclaration",
                  "scope": 2285,
                  "src": "2683:23:8",
                  "stateVariable": false,
                  "storageLocation": "default",
                  "typeDescriptions": {
                    "typeIdentifier": "t_address",
                    "typeString": "address"
                  },
                  "typeName": {
                    "id": 2280,
                    "name": "address",
                    "nodeType": "ElementaryTypeName",
                    "src": "2683:7:8",
                    "stateMutability": "nonpayable",
                    "typeDescriptions": {
                      "typeIdentifier": "t_address",
                      "typeString": "address"
                    }
                  },
                  "visibility": "internal"
                },
                {
                  "constant": false,
                  "id": 2283,
                  "indexed": false,
                  "mutability": "mutable",
                  "name": "value",
                  "nameLocation": "2716:5:8",
                  "nodeType": "VariableDeclaration",
                  "scope": 2285,
                  "src": "2708:13:8",
                  "stateVariable": false,
                  "storageLocation": "default",
                  "typeDescriptions": {
                    "typeIdentifier": "t_uint256",
                    "typeString": "uint256"
                  },
                  "typeName": {
                    "id": 2282,
                    "name": "uint256",
                    "nodeType": "ElementaryTypeName",
                    "src": "2708:7:8",
                    "typeDescriptions": {
                      "typeIdentifier": "t_uint256",
                      "typeString": "uint256"
                    }
                  },
                  "visibility": "internal"
                }
              ],
              "src": "2659:63:8"
            },
            "src": "2645:78:8"
          }
        ],
        "scope": 2287,
        "src": "129:2596:8",
        "usedErrors": []
      }
    ],
    "src": "33:2693:8"
  },
  "compiler": {
    "name": "solc",
    "version": "0.8.10+commit.fc410830.Emscripten.clang"
  },
  "networks": {},
  "schemaVersion": "3.3.4",
  "updatedAt": "2021-11-22T08:22:46.504Z",
  "devdoc": {
    "details": "Interface of the ERC20 standard as defined in the EIP.",
    "events": {
      "Approval(address,address,uint256)": {
        "details": "Emitted when the allowance of a `spender` for an `owner` is set by a call to {approve}. `value` is the new allowance."
      },
      "Transfer(address,address,uint256)": {
        "details": "Emitted when `value` tokens are moved from one account (`from`) to another (`to`). Note that `value` may be zero."
      }
    },
    "kind": "dev",
    "methods": {
      "allowance(address,address)": {
        "details": "Returns the remaining number of tokens that `spender` will be allowed to spend on behalf of `owner` through {transferFrom}. This is zero by default. This value changes when {approve} or {transferFrom} are called."
      },
      "approve(address,uint256)": {
        "details": "Sets `amount` as the allowance of `spender` over the caller's tokens. Returns a boolean value indicating whether the operation succeeded. IMPORTANT: Beware that changing an allowance with this method brings the risk that someone may use both the old and the new allowance by unfortunate transaction ordering. One possible solution to mitigate this race condition is to first reduce the spender's allowance to 0 and set the desired value afterwards: https://github.com/ethereum/EIPs/issues/20#issuecomment-263524729 Emits an {Approval} event."
      },
      "balanceOf(address)": {
        "details": "Returns the amount of tokens owned by `account`."
      },
      "totalSupply()": {
        "details": "Returns the amount of tokens in existence."
      },
      "transfer(address,uint256)": {
        "details": "Moves `amount` tokens from the caller's account to `recipient`. Returns a boolean value indicating whether the operation succeeded. Emits a {Transfer} event."
      },
      "transferFrom(address,address,uint256)": {
        "details": "Moves `amount` tokens from `sender` to `recipient` using the allowance mechanism. `amount` is then deducted from the caller's allowance. Returns a boolean value indicating whether the operation succeeded. Emits a {Transfer} event."
      }
    },
    "version": 1
  },
  "userdoc": {
    "kind": "user",
    "methods": {},
    "version": 1
  }
}